{
	"info": {
		"_postman_id": "0759c380-1d5a-4e9c-ab57-f219bb0a351c",
		"name": "ExMachina 4",
		"schema": "https://schema.getpostman.com/json/collection/v2.1.0/collection.json"
	},
	"item": [
		{
			"name": "Authentication",
			"item": [
				{
					"name": "Auth",
					"request": {
						"auth": {
							"type": "noauth"
						},
						"method": "GET",
						"header": [],
						"url": {
							"raw": "{{host}}api/coatl/xm4/v1/auth",
							"host": [
								"{{host}}api"
							],
							"path": [
								"coatl",
								"xm4",
								"v1",
								"auth"
							]
						}
					},
					"response": []
				},
				{
					"name": "MakeToken",
					"request": {
						"method": "POST",
						"header": [],
						"body": {
							"mode": "raw",
							"raw": "{\r\n    \"username\": \"zecchan\",\r\n    \"password\": \"kmzwa8awaa\",\r\n    \"setCookie\": true\r\n}",
							"options": {
								"raw": {
									"language": "json"
								}
							}
						},
						"url": {
							"raw": "{{host}}api/coatl/xm4/v1/auth/maketoken",
							"host": [
								"{{host}}api"
							],
							"path": [
								"coatl",
								"xm4",
								"v1",
								"auth",
								"maketoken"
							]
						}
					},
					"response": []
				},
				{
					"name": "Logout",
					"request": {
						"method": "GET",
						"header": [],
						"url": {
							"raw": "{{host}}api/coatl/xm4/v1/auth/logout",
							"host": [
								"{{host}}api"
							],
							"path": [
								"coatl",
								"xm4",
								"v1",
								"auth",
								"logout"
							]
						}
					},
					"response": []
				}
			],
			"event": [
				{
					"listen": "prerequest",
					"script": {
						"type": "text/javascript",
						"exec": [
							""
						]
					}
				},
				{
					"listen": "test",
					"script": {
						"type": "text/javascript",
						"exec": [
							""
						]
					}
				}
			]
		},
		{
			"name": "Install",
			"item": [
				{
					"name": "Install",
					"request": {
						"method": "POST",
						"header": [
							{
								"key": "Origin",
								"type": "text",
								"value": "https://localhost:8080"
							}
						],
						"body": {
							"mode": "raw",
							"raw": "{\r\n    \r\n}",
							"options": {
								"raw": {
									"language": "json"
								}
							}
						},
						"url": {
							"raw": "{{host}}/api/coatl/xm4/v1/install",
							"host": [
								"{{host}}"
							],
							"path": [
								"api",
								"coatl",
								"xm4",
								"v1",
								"install"
							]
						}
					},
					"response": []
				},
				{
					"name": "Migrate Latest",
					"request": {
						"method": "POST",
						"header": [
							{
								"key": "Origin",
								"value": "https://exmachina.dev",
								"type": "text"
							}
						],
						"url": {
							"raw": "{{host}}/api/coatl/xm4/v1/install/migratelatest",
							"host": [
								"{{host}}"
							],
							"path": [
								"api",
								"coatl",
								"xm4",
								"v1",
								"install",
								"migratelatest"
							]
						}
					},
					"response": []
				},
				{
					"name": "Migrate Regress",
					"request": {
						"method": "POST",
						"header": [
							{
								"key": "Origin",
								"value": "https://exmachina.dev",
								"type": "text"
							}
						],
						"url": {
							"raw": "{{host}}/api/coatl/xm4/v1/install/migrateregress",
							"host": [
								"{{host}}"
							],
							"path": [
								"api",
								"coatl",
								"xm4",
								"v1",
								"install",
								"migrateregress"
							]
						}
					},
					"response": []
				},
				{
					"name": "Install XM4 Application",
					"request": {
						"method": "POST",
						"header": [
							{
								"key": "Origin",
								"type": "text",
								"value": "https://localhost:8080"
							}
						],
						"url": {
							"raw": "{{host}}/api/coatl/xm4/v1/install/testInstallPackage",
							"host": [
								"{{host}}"
							],
							"path": [
								"api",
								"coatl",
								"xm4",
								"v1",
								"install",
								"testInstallPackage"
							]
						}
					},
					"response": []
				},
				{
					"name": "Uninstall XM4 Application",
					"request": {
						"method": "POST",
						"header": [
							{
								"key": "Origin",
								"type": "text",
								"value": "https://exmachina.dev"
							}
						],
						"body": {
							"mode": "raw",
							"raw": "{\r\n    \"appid\": \"Coatl.MyApp\"\r\n}",
							"options": {
								"raw": {
									"language": "json"
								}
							}
						},
						"url": {
							"raw": "{{host}}/api/coatl/xm4/v1/install/uninstallxm4a",
							"host": [
								"{{host}}"
							],
							"path": [
								"api",
								"coatl",
								"xm4",
								"v1",
								"install",
								"uninstallxm4a"
							]
						}
					},
					"response": []
				}
			]
		},
		{
			"name": "User",
			"item": [
				{
					"name": "Register",
					"request": {
						"method": "POST",
						"header": [],
						"body": {
							"mode": "raw",
							"raw": "{\r\n    \"username\": \"zecchan\",\r\n    \"email\": \"zecchan@lolisoft.com\",\r\n    \"password\": \"kmzwa8awaa\",\r\n    \"givenname\": \"Zecchan\",\r\n    \"middlename\": \"\",\r\n    \"surname\": \"Silverlake\"\r\n}",
							"options": {
								"raw": {
									"language": "json"
								}
							}
						},
						"url": {
							"raw": "{{host}}/api/coatl/xm4/v1/user/register",
							"host": [
								"{{host}}"
							],
							"path": [
								"api",
								"coatl",
								"xm4",
								"v1",
								"user",
								"register"
							]
						}
					},
					"response": []
				}
			]
		},
		{
			"name": "Licensing",
			"item": [
				{
					"name": "Check License",
					"request": {
						"method": "POST",
						"header": [],
						"body": {
							"mode": "raw",
							"raw": "{\r\n    \"appId\": \"Coatl.Xm4\",\r\n    \"licenseCode\": \"h239jh98jfd894jhr\"\r\n}",
							"options": {
								"raw": {
									"language": "json"
								}
							}
						},
						"url": {
							"raw": "{{host}}/api/coatl/xm4/v1/licensing",
							"host": [
								"{{host}}"
							],
							"path": [
								"api",
								"coatl",
								"xm4",
								"v1",
								"licensing"
							]
						}
					},
					"response": []
				},
				{
					"name": "Generate Serial",
					"request": {
						"method": "POST",
						"header": [],
						"body": {
							"mode": "raw",
							"raw": "{\r\n    \"licensepricingid\": 1\r\n}",
							"options": {
								"raw": {
									"language": "json"
								}
							}
						},
						"url": {
							"raw": "{{host}}/api/coatl/xm4/v1/licensing/generateserial",
							"host": [
								"{{host}}"
							],
							"path": [
								"api",
								"coatl",
								"xm4",
								"v1",
								"licensing",
								"generateserial"
							]
						}
					},
					"response": []
				},
				{
					"name": "Check Serial",
					"request": {
						"method": "POST",
						"header": [],
						"body": {
							"mode": "raw",
							"raw": "{\r\n    \"serial\": \"60D4-6B3C-513F-B9BC-57D6\"\r\n}",
							"options": {
								"raw": {
									"language": "json"
								}
							}
						},
						"url": {
							"raw": "{{host}}/api/coatl/xm4/v1/licensing/checkserial",
							"host": [
								"{{host}}"
							],
							"path": [
								"api",
								"coatl",
								"xm4",
								"v1",
								"licensing",
								"checkserial"
							]
						}
					},
					"response": []
				},
				{
					"name": "Activate Serial",
					"request": {
						"method": "POST",
						"header": [],
						"body": {
							"mode": "raw",
							"raw": "{\r\n    \"serial\": \"60D4-6B3C-513F-B9BC-57D6\",\r\n    \"hwidentifier\": \"ss334fswetfset41483013234234234234234jde\"\r\n}",
							"options": {
								"raw": {
									"language": "json"
								}
							}
						},
						"url": {
							"raw": "{{host}}/api/coatl/xm4/v1/licensing/activate",
							"host": [
								"{{host}}"
							],
							"path": [
								"api",
								"coatl",
								"xm4",
								"v1",
								"licensing",
								"activate"
							]
						}
					},
					"response": []
				}
			]
		},
		{
			"name": "Organization",
			"item": [
				{
					"name": "Create Organization",
					"request": {
						"method": "POST",
						"header": [],
						"body": {
							"mode": "raw",
							"raw": "{\r\n    \"slug\": \"coatl\",\r\n    \"name\": \"Code Atelier\",\r\n    \"address\": \"\",\r\n    \"phone\": \"\",\r\n    \"email\": \"\",\r\n    \"public\": 1,\r\n    \"mustapprove\": 1\r\n}",
							"options": {
								"raw": {
									"language": "json"
								}
							}
						},
						"url": {
							"raw": "{{host}}/api/coatl/xm4/v1/organization/create",
							"host": [
								"{{host}}"
							],
							"path": [
								"api",
								"coatl",
								"xm4",
								"v1",
								"organization",
								"create"
							]
						}
					},
					"response": []
				},
				{
					"name": "Invite to Organization",
					"request": {
						"method": "POST",
						"header": [],
						"body": {
							"mode": "raw",
							"raw": "{\r\n    \"userid\": 2,\r\n    \"organizationid\": 1\r\n}",
							"options": {
								"raw": {
									"language": "json"
								}
							}
						},
						"url": {
							"raw": "{{host}}/api/coatl/xm4/v1/organization/invite",
							"host": [
								"{{host}}"
							],
							"path": [
								"api",
								"coatl",
								"xm4",
								"v1",
								"organization",
								"invite"
							]
						}
					},
					"response": []
				},
				{
					"name": "Respond Organization Invite",
					"request": {
						"method": "POST",
						"header": [],
						"body": {
							"mode": "raw",
							"raw": "{\r\n    \"invitationid\": 1\r\n}",
							"options": {
								"raw": {
									"language": "json"
								}
							}
						},
						"url": {
							"raw": "{{host}}/api/coatl/xm4/v1/organization/answerinvite",
							"host": [
								"{{host}}"
							],
							"path": [
								"api",
								"coatl",
								"xm4",
								"v1",
								"organization",
								"answerinvite"
							]
						}
					},
					"response": []
				}
			]
		}
	],
	"auth": {
		"type": "bearer",
		"bearer": [
			{
				"key": "token",
				"value": "eyJhbGciOiJIUzI1NiIsInR5cCI6IkpXVCJ9.eyJzdWIiOiJ6ZWNjaGFuQGV4bWFjaGluYS5kZXYiLCJuYW1lIjoiemVjY2hhbiIsImdpdmVubmFtZSI6IlplY2NoYW4iLCJtaWRkbGVuYW1lIjoiIiwic3VybmFtZSI6IlNpbHZlcmxha2UiLCJmdWxsbmFtZSI6IlplY2NoYW4gU2lsdmVybGFrZSIsInJvbGUiOiJ1c2VyIiwidXZjIjoiMDFjNDQ1MDdkOWQ4MjhhNWIxZDg1OTIxZDQzYWU3YmEyMTU3ODM0NDlmOTIwNDMwNWNiZjllMTcwOGE3MmRlNiIsImp0aSI6IjEzclZWcldcXGdCa1hlMk4lOHZoSEU8WFYhRipadTllJiIsImF1ZCI6ImV4bWFjaGluYS5kZXYiLCJpc3MiOiJleG1hY2hpbmEuZGV2IiwiaWF0IjoxNjE2MzkzNjE0LCJleHAiOjE2MTY5OTg0MTR9.cmPg0aGbnjks1tjY96YD63yC6Mcy5IITjPVg_OZuY7c",
				"type": "string"
			}
		]
	},
	"event": [
		{
			"listen": "prerequest",
			"script": {
				"type": "text/javascript",
				"exec": [
					""
				]
			}
		},
		{
			"listen": "test",
			"script": {
				"type": "text/javascript",
				"exec": [
					""
				]
			}
		}
	],
	"variable": [
		{
			"key": "host",
			"value": "https://exmachina.dev/"
		}
	]
}